{\rtf1\ansi\ansicpg1252\cocoartf2513
\cocoatextscaling0\cocoaplatform0{\fonttbl\f0\fswiss\fcharset0 Helvetica;}
{\colortbl;\red255\green255\blue255;}
{\*\expandedcolortbl;;}
\paperw11900\paperh16840\margl1440\margr1440\vieww10800\viewh8400\viewkind0
\pard\tx566\tx1133\tx1700\tx2267\tx2834\tx3401\tx3968\tx4535\tx5102\tx5669\tx6236\tx6803\pardirnatural\partightenfactor0

\f0\fs24 \cf0 341\
Lattice="9.228 0 0 0 10.77 0 0 0 50"\
  C         0.0000000000        0.0000000000        1.9432490000\
  C         3.0759970000        0.0000000000        1.9432490000\
  C         6.1519930000        0.0000000000        1.9432490000\
  C         1.5379980000        2.6925000000        1.9432490000\
  C         4.6139950000        2.6925000000        1.9432490000\
  C         7.6899920000        2.6925000000        1.9432490000\
  C         0.0000000000        5.3850000000        1.9432490000\
  C         3.0759970000        5.3850000000        1.9432490000\
  C         6.1519930000        5.3850000000        1.9432490000\
  C         1.5379980000        8.0775000000        1.9432490000\
  C         4.6139950000        8.0775000000        1.9432490000\
  C         7.6899920000        8.0775000000        1.9432490000\
 Si         1.5380010000        0.8975010000        2.5237000000\
 Si         4.6139970000        0.8975010000        2.5237000000\
 Si         7.6899940000        0.8975010000        2.5237000000\
 Si         0.0000020000        3.5900010000        2.5237000000\
 Si         3.0759990000        3.5900010000        2.5237000000\
 Si         6.1519960000        3.5900010000        2.5237000000\
 Si         1.5380010000        6.2825010000        2.5237000000\
 Si         4.6139970000        6.2825010000        2.5237000000\
 Si         7.6899940000        6.2825010000        2.5237000000\
 Si         0.0000020000        8.9750010000        2.5237000000\
 Si         3.0759990000        8.9750010000        2.5237000000\
 Si         6.1519960000        8.9750010000        2.5237000000\
  C         1.5380010000        0.8975010000        4.4669490000\
  C         4.6139970000        0.8975010000        4.4669490000\
  C         7.6899940000        0.8975010000        4.4669490000\
  C         0.0000020000        3.5900010000        4.4669490000\
  C         3.0759990000        3.5900010000        4.4669490000\
  C         6.1519960000        3.5900010000        4.4669490000\
  C         1.5380010000        6.2825010000        4.4669490000\
  C         4.6139970000        6.2825010000        4.4669490000\
  C         7.6899940000        6.2825010000        4.4669490000\
  C         0.0000020000        8.9750010000        4.4669490000\
  C         3.0759990000        8.9750010000        4.4669490000\
  C         6.1519960000        8.9750010000        4.4669490000\
 Si         0.0000000000        0.0000000000        5.0474000000\
 Si         3.0759970000        0.0000000000        5.0474000000\
 Si         6.1519930000        0.0000000000        5.0474000000\
 Si         1.5379980000        2.6925000000        5.0474000000\
 Si         4.6139950000        2.6925000000        5.0474000000\
 Si         7.6899920000        2.6925000000        5.0474000000\
 Si         0.0000000000        5.3850000000        5.0474000000\
 Si         3.0759970000        5.3850000000        5.0474000000\
 Si         6.1519930000        5.3850000000        5.0474000000\
 Si         1.5379980000        8.0775000000        5.0474000000\
 Si         4.6139950000        8.0775000000        5.0474000000\
 Si         7.6899920000        8.0775000000        5.0474000000\
  C         0.0000000000        0.0000000000        6.9906490000\
  C         3.0759970000        0.0000000000        6.9906490000\
  C         6.1519930000        0.0000000000        6.9906490000\
  C         1.5379980000        2.6925000000        6.9906490000\
  C         4.6139950000        2.6925000000        6.9906490000\
  C         7.6899920000        2.6925000000        6.9906490000\
  C         0.0000000000        5.3850000000        6.9906490000\
  C         3.0759970000        5.3850000000        6.9906490000\
  C         6.1519930000        5.3850000000        6.9906490000\
  C         1.5379980000        8.0775000000        6.9906490000\
  C         4.6139950000        8.0775000000        6.9906490000\
  C         7.6899920000        8.0775000000        6.9906490000\
 Si         1.5380010000        0.8975010000        7.5711000000\
 Si         4.6139970000        0.8975010000        7.5711000000\
 Si         7.6899940000        0.8975010000        7.5711000000\
 Si         0.0000020000        3.5900010000        7.5711000000\
 Si         3.0759990000        3.5900010000        7.5711000000\
 Si         6.1519960000        3.5900010000        7.5711000000\
 Si         1.5380010000        6.2825010000        7.5711000000\
 Si         4.6139970000        6.2825010000        7.5711000000\
 Si         7.6899940000        6.2825010000        7.5711000000\
 Si         0.0000020000        8.9750010000        7.5711000000\
 Si         3.0759990000        8.9750010000        7.5711000000\
 Si         6.1519960000        8.9750010000        7.5711000000\
  C         1.5380010000        0.8975010000        9.5143490000\
  C         4.6139970000        0.8975010000        9.5143490000\
  C         7.6899940000        0.8975010000        9.5143490000\
  C         0.0000020000        3.5900010000        9.5143490000\
  C         3.0759990000        3.5900010000        9.5143490000\
  C         6.1519960000        3.5900010000        9.5143490000\
  C         1.5380010000        6.2825010000        9.5143490000\
  C         4.6139970000        6.2825010000        9.5143490000\
  C         7.6899940000        6.2825010000        9.5143490000\
  C         0.0000020000        8.9750010000        9.5143490000\
  C         3.0759990000        8.9750010000        9.5143490000\
  C         6.1519960000        8.9750010000        9.5143490000\
 Si         0.0000000000        0.0000000000       10.0948000000\
 Si         3.0759970000        0.0000000000       10.0948000000\
 Si         6.1519930000        0.0000000000       10.0948000000\
 Si         1.5379980000        2.6925000000       10.0948000000\
 Si         4.6139950000        2.6925000000       10.0948000000\
 Si         7.6899920000        2.6925000000       10.0948000000\
 Si         0.0000000000        5.3850000000       10.0948000000\
 Si         3.0759970000        5.3850000000       10.0948000000\
 Si         6.1519930000        5.3850000000       10.0948000000\
 Si         1.5379980000        8.0775000000       10.0948000000\
 Si         4.6139950000        8.0775000000       10.0948000000\
 Si         7.6899920000        8.0775000000       10.0948000000\
  C         0.0000000000        0.0000000000       12.0380500000\
  C         3.0759970000        0.0000000000       12.0380500000\
  C         6.1519930000        0.0000000000       12.0380500000\
  C         1.5379980000        2.6925000000       12.0380500000\
  C         4.6139950000        2.6925000000       12.0380500000\
  C         7.6899920000        2.6925000000       12.0380500000\
  C         0.0000000000        5.3850000000       12.0380500000\
  C         3.0759970000        5.3850000000       12.0380500000\
  C         6.1519930000        5.3850000000       12.0380500000\
  C         1.5379980000        8.0775000000       12.0380500000\
  C         4.6139950000        8.0775000000       12.0380500000\
  C         7.6899920000        8.0775000000       12.0380500000\
 Si         1.5380010000        0.8975010000       12.6185000000\
 Si         4.6139970000        0.8975010000       12.6185000000\
 Si         7.6899940000        0.8975010000       12.6185000000\
 Si         0.0000020000        3.5900010000       12.6185000000\
 Si         3.0759990000        3.5900010000       12.6185000000\
 Si         6.1519960000        3.5900010000       12.6185000000\
 Si         1.5380010000        6.2825010000       12.6185000000\
 Si         4.6139970000        6.2825010000       12.6185000000\
 Si         7.6899940000        6.2825010000       12.6185000000\
 Si         0.0000020000        8.9750010000       12.6185000000\
 Si         3.0759990000        8.9750010000       12.6185000000\
 Si         6.1519960000        8.9750010000       12.6185000000\
  C         1.5380010000        0.8975010000       14.5617500000\
  C         4.6139970000        0.8975010000       14.5617500000\
  C         7.6899940000        0.8975010000       14.5617500000\
  C         0.0000020000        3.5900010000       14.5617500000\
  C         3.0759990000        3.5900010000       14.5617500000\
  C         6.1519960000        3.5900010000       14.5617500000\
  C         1.5380010000        6.2825010000       14.5617500000\
  C         4.6139970000        6.2825010000       14.5617500000\
  C         7.6899940000        6.2825010000       14.5617500000\
  C         0.0000020000        8.9750010000       14.5617500000\
  C         3.0759990000        8.9750010000       14.5617500000\
  C         6.1519960000        8.9750010000       14.5617500000\
 Si         0.0000000000        0.0000000000       15.1422000000\
 Si         3.0759970000        0.0000000000       15.1422000000\
 Si         6.1519930000        0.0000000000       15.1422000000\
 Si         1.5379980000        2.6925000000       15.1422000000\
 Si         4.6139950000        2.6925000000       15.1422000000\
 Si         7.6899920000        2.6925000000       15.1422000000\
 Si         0.0000000000        5.3850000000       15.1422000000\
 Si         3.0759970000        5.3850000000       15.1422000000\
 Si         6.1519930000        5.3850000000       15.1422000000\
 Si         1.5379980000        8.0775000000       15.1422000000\
 Si         4.6139950000        8.0775000000       15.1422000000\
 Si         7.6899920000        8.0775000000       15.1422000000\
  O         1.7530505906        9.7335975101       16.2970674782\
  C        -0.0677135912        0.0469112763       17.0871687471\
  C         3.1287914100        0.0323287083       17.1069496242\
  C         6.1402456051       -0.0033568326       17.0628803252\
  C         1.5156688060        2.6858233615       17.0610773166\
  C         4.6294984731        2.7041739356       17.0539394336\
  C         7.6939983858        2.7175617514       17.0558340605\
  C        -0.0040086917        5.3844147336       17.0644221293\
  C         3.0929126172        5.3306996615       17.0201668465\
  C         6.1352734288        5.3856652798       17.0681281425\
  C         1.5118397105        8.0129043810       17.1067222434\
  C         4.6277441010        8.0912841294       17.0679910703\
  C         7.7065698883        8.0818761525       17.0755591113\
 Si         1.5292188836        0.8903933921       17.6384724137\
 Si         4.6569570184        0.9400636640       17.7033030804\
 Si         7.6403697096        0.9384528355       17.6610723308\
 Si        -0.0022846750        3.5986552214       17.6656197981\
 Si         3.0710747431        3.5625415622       17.6167994448\
 Si         6.1578800535        3.5931935936       17.6570496433\
 Si         1.5671255108        6.2021084621       17.7000875153\
 Si         4.5898713047        6.2824039872       17.6679136521\
 Si         7.6811953143        6.2773648168       17.6338801820\
 Si         0.0036959597        9.0116821660       17.6652216707\
 Si         3.0616333116        8.9616107929       17.6722346063\
 Si         6.1654707626        8.9793092358       17.6540379273\
  C         1.5652087489        0.9427545703       19.5525026898\
  C         4.6165539928        0.9289490328       19.6409507282\
  C         7.7044628566        0.9056975741       19.5558490160\
  C        -0.0231780279        3.5841245125       19.5852974018\
  C         3.0806077362        3.5683574627       19.5045640713\
  C         6.1645666072        3.5341969399       19.5659927851\
  C         1.4615856755        6.2489642732       19.6511967680\
  C         4.6630773727        6.2601781157       19.6449622207\
  C         7.6507369757        6.3118744708       19.5477882506\
  C         0.0172221019        9.0484292252       19.6005956744\
  C         3.1085052948        9.0508646081       19.6425763969\
  C         6.1833855213        9.0162599434       19.5830229161\
 Si         0.0339269282        0.0769368958       20.1668875999\
 Si         3.0649764688        0.0660682621       20.1793328151\
 Si         6.1791429799        0.0437231299       20.1577550547\
 Si         1.5376614241        2.7218294617       20.1273525293\
 Si         4.6004431386        2.7340051771       20.1961540206\
 Si         7.6986524792        2.6769588295       20.1815319463\
 Si        -0.0959045749        5.3678765188       20.1360196704\
 Si         3.0528065082        5.3540993504       20.0953540006\
 Si         6.2027350810        5.3124865549       20.1646865272\
 Si         1.5480672833        8.0893049336       20.0596877272\
 Si         4.6607035476        8.0900272903       20.1299182927\
 Si         7.7278954063        8.0934661614       20.1078874316\
  O         8.1210962902        8.0340647980       21.6938827021\
  O         5.0238114863        8.3184238844       21.7497677457\
  O         7.1252318118       10.1767866892       21.6851542993\
  O         2.7654577573        5.1963745015       21.6645556195\
  O         1.4832173415        2.9411087548       21.7029488536\
  O         5.8365754784        1.3244222337       21.9231006823\
  O         9.3015710000        5.7926806319       21.8391524786\
  O         6.3239578074        4.9902296382       21.7942772985\
  O         3.1029458007       10.5901625333       21.8841348901\
  O         1.6311607426        8.1335312791       21.8409024470\
  O         4.3559799779        3.0837420504       21.7626563206\
  O         7.9295269006        2.4576294497       21.7610017608\
  O         0.1649835014        0.6417558070       21.7018252537\
 Si         3.1135847430        8.8685638583       22.3193751350\
 Si         6.2095555665        9.0740459950       22.6277424663\
 Si         7.4121266502        1.0316389247       22.3637068132\
 Si         0.1593588745        7.4265863984       22.4348284149\
 Si         1.5154067653        4.5196976978       22.3948380355\
 Si         5.1045030603        4.1483738133       22.7126982294\
  O         3.0776080315        6.9204654283       18.7305984670\
  O         4.5819920601        6.0735555594       22.7027471175\
  O         6.6437661509        7.2192090672       23.3088932461\
  O         5.2636228883       10.1231026638       23.2217347408\
  O         2.8355792902        1.6099621610       23.4984129303\
 Si         7.1042600482        5.8751093295       24.1261445734\
 Si         1.3279331103        1.2234124437       23.3018625569\
 Si         4.4761657545        1.0474531016       23.3235793902\
  O         0.2410639660        7.1639263508       23.9922437534\
  O         8.2910830104        4.5004154072       23.3752506700\
  O         6.1844869584        3.3273506272       23.4796839780\
  O         7.3191375901        0.9514564275       24.0976681921\
  O         5.0425205653        7.8650670714       24.5936760521\
  O         2.5520576748        6.6958874041       23.7306437873\
  O         4.1166600329        3.6224936072       24.3945333583\
  O         0.2941292713        2.4377210166       23.6431131425\
  O         7.6149394033        9.2311936516       23.7783110170\
 Si         4.1322216949        6.6471649413       24.1354045139\
  O         3.0342308163        9.2011981369       23.8735854461\
  O         4.9273007631        1.2069936494       24.8651354405\
  O         2.1457617381        7.9502066354       25.8393679408\
 Si         8.5623833671        3.3993886667       24.4699066344\
 Si         6.4418018517        8.2270320007       26.0050511802\
 Si         6.4711600765        0.5476552212       25.3479704930\
 Si         1.4607793322        6.7960282039       24.9934997435\
  O         4.4800396915        9.7810312224       25.9412604376\
  O         6.5898042353        1.1557146002       26.8670592713\
  O         2.3217781663        2.4411535152       25.8059070753\
  O         4.0498336548        0.8704216660       27.6530836847\
  O         1.9438408619        5.5686092250       26.7313444445\
  O         0.3933242813        4.0643210095       25.5880415109\
  O         0.1449659399        9.0865045230       25.5299062454\
  O         8.0710983782        5.9247985832       25.3850986249\
 Si         2.0016832428        3.9453885375       25.5741314936\
 Si         4.9539109506       10.1016528661       27.8189601645\
 Si         3.0124510871        9.2464854895       25.4316110435\
 Si         5.3801444284        3.5150059917       25.3282717601\
 Si         8.9801111426        9.7950810694       24.2536035800\
  O         6.8783311911        9.8819605609       25.8879563398\
  O         5.4922255257        8.1640993615       27.1992985389\
  O         5.9195102153        5.2774715609       24.9537832068\
  O         1.9801123054        4.4072173615       23.8581958857\
  O         7.7353525899        7.6782604920       26.7180019360\
 Si         4.5114900026        6.1973502550       27.0989848364\
 Si         2.9289358046        1.2419301481       26.5519734617\
  O         0.9547675061       10.1419648984       23.3892303578\
  O         6.2195548860        5.9210805931       27.3926493975\
 Si         9.2001722111        1.1755914069       26.6180821662\
  O         2.3682045045       10.7524434795       25.6496333645\
  O         7.3697122902        3.0925526206       25.5833699778\
  O         3.8625645384        5.8207070727       25.6412882325\
  O         8.2580549077        1.2911163282       28.7568469050\
 Si         1.0062540896        6.0320168750       28.0267992114\
  O         4.7979789711        3.0862773772       26.7258110542\
 Si        -0.0340576384        8.9047630156       27.1298849356\
  O         0.2295566100        2.5154781018       27.3252711262\
  O         4.2060241342        5.0346712692       28.1350985429\
 Si         2.9343925226        8.3164970314       28.8111585137\
 Si         7.5255386177        5.0881625357       26.9671778664\
  O         0.6925929481        7.6526561487       27.8387419458\
  O         7.7223068385        9.3446344948       28.5307918382\
  O         8.8572340768        5.2247291868       27.6113747647\
 Si         6.7745723560        2.0530667353       28.2390102866\
  O         0.4827217934       10.5183532162       27.3773728953\
 Si         3.9398849078        3.4703643636       28.1616399742\
  O         6.9124524566        3.6648658326       28.0037794423\
  O         0.1425028057        0.8227383432       25.1655159440\
  O         3.4699157994        7.2726086489       27.7553834900\
  O         5.2565916234        9.8936662542       29.4811988361\
  O         2.9096976559        9.7328283316       28.2318061134\
  O         2.2784388501        3.6092825591       28.1707920864\
 Si         0.7040648119        3.0792176545       28.8197228628\
 Si         7.1673858041        7.7699203000       28.9593912440\
  O         8.0660452686        6.5490912226       29.3427312897\
  O         1.3306308233        1.8594941563       29.5271366089\
  O         5.8967408417        7.6625820813       29.8826707842\
  O         4.3677618352        3.1802594810       29.7348031058\
  O         1.4504196053        5.6762481565       29.4773718741\
  O         3.8421334946        6.1526240827       30.1581683574\
  O         5.7252837850        1.4099118163       29.2001307252\
 Si         2.0991681508        0.5000102002       29.4799943078\
  O         0.6992325061       10.2773638450       29.6939858581\
  O         6.9238996643        3.1267404747       30.5657136576\
  O         2.2824311648        3.5486781338       30.8457753887\
  O         4.6391641086        4.0813488110       32.2311270890\
  O         8.3653759083        8.6056078403       30.7488948944\
 Si         5.3924345434        0.3709579062       30.5825085399\
 Si         2.4156285271        5.1632928428       30.5950870497\
 Si         5.2119543649        4.0890252894       30.7063551270\
 Si         7.8218540121        5.1391846609       30.3164920498\
  O         8.9602627833        4.0690278919       29.7537019795\
  O         0.9531343300        7.3040063421       32.3809838037\
  O         1.3102459980        1.2640302095       32.0989081193\
  O         2.4177774208        5.6010705028       32.1038952671\
  O         3.2563472335        0.4150223831       30.5417288463\
 Si         8.4396585655       10.7870496091       29.7914685210\
 Si         4.7343350495        7.1903417032       30.9580934315\
  O         6.2442675624        5.3254788363       30.4031416921\
 Si         7.7283883470        2.4681211540       31.7767579295\
  O         4.8834450943        6.5176591851       32.4275121685\
  O         6.2256638418       10.4212266656       31.6980844041\
 Si         2.4701977649        2.3893408510       32.2356942963\
 Si         3.0849368024        9.6728289854       31.8543482695\
  O         8.3187722787        1.0596547544       31.2732282494\
 Si         7.2870751071        9.3392003816       32.1742053415\
 Si         0.6331954257        8.1040861591       31.0106384410\
  O         1.8055983485        7.9489049589       29.8668396226\
  O         4.1279392687       10.0255030697       33.0249619825\
  O         8.5381302726        9.7179740611       33.1333852425\
  O         1.5016509224        9.6140113003       31.8115648005\
  O         6.7807500743        7.6901005347       32.4189164662\
  O         8.3290547836        5.7853880969       31.6888289901\
 Si         3.9036554361        5.3723262397       33.0284178932\
  O         3.8982154801        8.5340171735       31.0650335659\
  O         8.8957520397        3.5233678116       32.2659881927\
  O         3.1576845503        7.7061069876       33.6619289851\
 Si         7.4551128720        6.3581642452       32.9329644714\
  O         3.9624984116        1.7171247387       32.5631600499\
  O         1.9743943611        3.3985997034       33.3500945750\
 Si         0.3567058699        0.1855657687       33.1514843309\
  O         0.9160405155        5.6388387800       34.2511257139\
 Si         0.5644448482        4.2072630244       33.5023114388\
 Si         1.5854501630        7.2584307891       33.7988369300\
  O         5.7680550194        0.2773484061       34.3560144980\
  O         6.5866844158        2.2251072095       32.8300519621\
  O         6.8232320635        5.0825695891       33.5008522964\
 Si         5.3293541107        1.6017806380       33.5233187786\
  O         8.6469376995        1.1258746613       34.0226273064\
 Si         4.4542257674        8.8552669644       34.3422543754\
  O         1.6881253163       10.6021996018       34.0156565919\
  O         8.1156342337        7.0330163697       34.2838313610\
  O         3.3945589795        5.5039067820       34.4979673864\
  O         5.9636562711        8.2371218561       34.7223732206\
 Si         6.3353563155        4.4649465057       35.0043964179\
  O         4.6608419509        3.2118702000       34.5680168408\
  O         1.1697038191        8.3418230991       34.8771641345\
  O         3.1093924167        1.3877940409       35.1546423105\
  O         8.8905300629        3.4234022246       34.8034949392\
  O         4.2636563305        7.7440916348       36.6607506921\
 Si         8.4281759239        2.0275470900       35.3376047788\
  O         3.6869947236        9.7707589286       35.4295152732\
  O         2.0828675402        3.7194984520       35.6031572656\
 Si         3.9928800197        6.2079678785       35.9667282214\
  O         6.0901253474        9.6289876921       36.8450358354\
  O         0.2562630147        6.1408727035       36.6929573876\
  O         0.0630513170        1.4839291792       36.6010988064\
  O         5.4480308208        5.6778489906       35.5759559626\
 Si         4.9121998095        8.8144635222       37.6915934300\
 Si         2.4918962896        0.0658827291       35.3492139852\
 Si         1.2641069214        4.7983652927       36.4979852377\
 Si         7.3217994892        7.8819513353       35.4008325243\
  O         3.8286438469        9.7147749656       38.4179770065\
  O         7.0755191663        6.9864242978       36.7305574314\
  O         4.7639070361        0.8413121116       36.7816677432\
  O         6.9738925421        1.6399185861       35.9136752292\
  O         0.6917461592        3.6748115388       37.4866088201\
  O         8.2031031344        5.2761454533       38.6771265084\
  O         1.3923620832       10.2841689238       36.5519818287\
  O         8.3092076191        9.0179611177       35.9253474756\
 Si         0.7464366569        8.7471586226       36.3536424895\
 Si         6.0578067093        0.2810715768       36.0034771860\
 Si         8.3902863854        6.5030579688       37.7667726539\
 Si         3.4069680044        2.9772733495       35.4786453001\
 Si         0.9351609205        2.1397470799       37.8125280743\
  O         4.1573244312        3.2031688323       37.2967929149\
  O         2.9157772879        5.6280805960       36.9388434382\
  O         5.6547502101        7.8106973040       38.7651230478\
  O         0.9544626439        9.8628953391       38.7341334405\
  O         7.4140056611        4.2935134875       36.3118975650\
 Si         7.0261757999        4.0047957263       37.8627792929\
  O         1.8145535727        7.9679699620       37.2459430129\
  O         5.2748363434        1.3501235688       39.2026292213\
  O         0.6468438934        2.2425889878       39.3970882697\
 Si         8.7298881793        9.3597024178       39.1421262548\
  O         7.3056556074        2.4435092111       38.4071078057\
  O         8.6739348191        7.8714465458       38.5062500469\
 Si         1.9631319426        7.2245109231       38.7150529889\
  O         4.0781467704        5.8866034580       39.6880607782\
  O         7.5650104195       10.4058745809       38.8142288942\
 Si         3.4194683923        4.4992320798       38.9753357225\
  O         5.8279805008        5.0194947806       38.1774298130\
  O         2.2995426012        1.3931650774       37.7813141868\
 Si         5.6130878731        6.3233099011       39.1896527012\
 Si         6.9913899997        1.2089087659       39.2441840168\
 Si         2.4502879068       10.4404526234       39.0065706262\
 Si         4.2781301082        1.7672009291       38.0524238639\
  O         1.6910795353        5.6701191798       39.0166846188\
  O         6.5723695640        6.2292696966       40.4631230103\
  O         2.6984060736        8.0035309866       39.8846733350\
  O         2.9900125976        3.2179044151       39.8858520877\
  O         8.8914235252        9.3002735137       40.6868374578\
  O         5.5451285772        3.6218545697       40.5148710593\
  O         2.3965292762        0.4132102047       40.3884795475\
  O         7.3856750558        1.5380341737       40.7600668073\
 Si         1.6435197484        2.5228875831       40.6229492052\
  O         4.7951430748       10.7007022671       41.6937891990\
  O         0.4286475499        6.6798189460       41.1338869712\
  O         5.2546472434        3.8890939621       41.8450245902\
 Si         1.7382696073        5.5644294977       41.1859644410\
  O         5.0446029210        7.9474470930       41.2564239219\
  O         7.0012287645        9.5781676657       42.1674896911\
  O         7.6686591024        6.7085038074       42.6777035705\
  O         8.0253429412        3.9922038067       41.5150459872\
  O         2.8015458427        6.1951090256       42.3138995015\
  O         2.5511458403        1.3956324960       43.3832952412\
  O         1.4495917326        3.5582595212       41.8446191597\
 Si         7.9880782273        5.5421471483       40.9065189014\
 Si         3.4140152001        8.0760128303       41.3503740659\
 Si         2.1447955673        0.1959637219       42.3394545380\
 Si         8.6082185728        9.8934683575       42.2029877874\
 Si         6.8774795513        2.7870910588       41.7060975849\
 Si         6.2415643675        8.1148317082       42.3383590853\
  O         4.3669652131       10.3358321515       44.4753404223\
  O         2.8037958733        8.9633705350       42.5798883700\
  O         5.4697168310        8.0363040241       43.7509266091\
  O         7.4280337270        4.0520837398       44.7800582692\
  O         0.5610028118        5.7938877372       44.7042762894\
  O         3.1723113006        7.2786970884       44.8588793015\
  O         0.4682843196        0.3349125554       42.3260597780\
  O         0.7189681825        3.1026380358       44.4042851797\
  O         3.0227119212        4.3668986684       44.1123753008\
  O         4.5441994347        1.2892989790       41.7168958555\
  O         5.0172893222        2.3875095792       44.6810040806\
  O         9.1149964456        8.7928199949       43.2591684715\
  O         7.0384657729        1.7268418929       43.4281305762\
 Si         2.5550022728        5.9208061970       44.0686189430\
 Si         6.5829098856        2.6970380506       44.7269323152\
 Si         9.1390665331        7.1521485164       43.1062904519\
 Si         4.0325657003        8.6732631595       44.3203415361\
 Si         2.1605905062        2.9726127607       43.6222452409\
 Si         5.0267007073        0.7863451078       43.5402674179\
 Si         8.9425527817        4.4707668959       44.2787797824\
  H         0.0321548019        0.0104338084        0.8449804782\
  H         3.1081299511        0.0105253660        0.8449878334\
  H         6.1841109880        0.0104139173        0.8449879567\
  H         7.7220330762        2.7028034369        0.8449722953\
  H         0.0321536112        5.3954265764        0.8449813716\
  H         3.1081301285        5.3955154690        0.8449875035\
  H         6.1841147967        5.3954181625        0.8449884811\
  H         7.7220397159        8.0877955545        0.8449741664\
  H         1.5627907235        2.7154424069        0.8449653899\
  H         4.6388058852        2.7154492333        0.8449731814\
  H         1.5627914763        8.1004413578        0.8449643788\
  H         4.6387980758        8.1004441241        0.8449746918}